{"meta": {"limit": 10, "next": "/api/v1/player/?current_rating__decay__lt=4&format=json&current_rating__isnull=false&apikey=vXqui725YegPOtTf9k2l&order_by=-current_rating__rating&limit=10&offset=10", "offset": 0, "previous": null, "total_count": 891}, "objects": [{"aliases": [], "birthday": "1995-01-01", "country": "KR", "current_rating": {"decay": 0, "dev": 0.106688038904545, "dev_vp": 0.121775916101883, "dev_vt": 0.106544143627192, "dev_vz": 0.101925462037805, "id": 5192378, "rating": 1.22403765947284, "rating_vp": -0.0241462525366756, "rating_vt": -0.0413275146729788, "rating_vz": 0.0654737672096545, "resource_uri": "/api/v1/rating/5192378/", "tot_vp": 1.1998914069361644, "tot_vt": 1.1827101447998611, "tot_vz": 1.2895114266824945}, "current_teams": [{"end": null, "id": 171, "playing": true, "resource_uri": "", "start": "2012-03-29", "team": {"id": 18, "name": "Team Liquid", "resource_uri": "/api/v1/team/18/", "shortname": "Liquid"}}], "dom_end": "/api/v1/period/103/", "dom_start": "/api/v1/period/57/", "dom_val": 1.46605571508888, "id": 6, "lp_name": "TaeJa", "mcnum": 1, "name": "윤영서", "past_teams": [{"end": "2012-03-13", "id": 406, "playing": true, "resource_uri": "", "start": "2011-05-01", "team": {"id": 47, "name": "SlayerS", "resource_uri": "/api/v1/team/47/", "shortname": "SlayerS"}}, {"end": "2011-05-01", "id": 439, "playing": true, "resource_uri": "", "start": "2011-03-01", "team": {"id": 65, "name": "ZeNEX", "resource_uri": "/api/v1/team/65/", "shortname": "ZeNEX"}}], "race": "T", "resource_uri": "/api/v1/player/6/", "romanized_name": "Yun Young Seo", "sc2e_id": 285, "tag": "TaeJa", "tlpd_db": 3, "tlpd_id": 1849}, {"aliases": [], "birthday": "1992-08-14", "country": "KR", "current_rating": {"decay": 0, "dev": 0.0819036055115168, "dev_vp": 0.0876826714622334, "dev_vt": 0.0960614641295383, "dev_vz": 0.091985233409074, "id": 5192379, "rating": 1.16215006948867, "rating_vp": -0.0565416283118036, "rating_vt": 0.0065239780645291, "rating_vz": 0.0500176502472745, "resource_uri": "/api/v1/rating/5192379/", "tot_vp": 1.1056084411768663, "tot_vt": 1.1686740475531991, "tot_vz": 1.2121677197359444}, "current_teams": [{"end": null, "id": 3393, "playing": true, "resource_uri": "", "start": "2014-11-09", "team": {"id": 135, "name": "mYinsanity", "resource_uri": "/api/v1/team/135/", "shortname": "mYinsanity"}}], "dom_end": "/api/v1/period/46/", "dom_start": "/api/v1/period/35/", "dom_val": 0.538950194257193, "id": 7, "lp_name": "Rain_(Korean_Protoss)", "mcnum": 1, "name": "정윤종", "past_teams": [{"end": "2014-09-30", "id": 117, "playing": true, "resource_uri": "", "start": "2010-10-01", "team": {"id": 12, "name": "SK Telecom T1", "resource_uri": "/api/v1/team/12/", "shortname": "SKT T1"}}], "race": "P", "resource_uri": "/api/v1/player/7/", "romanized_name": "Jung Yoon Jong", "sc2e_id": 514, "tag": "Rain", "tlpd_db": 3, "tlpd_id": 697}, {"aliases": [], "birthday": "1992-08-18", "country": "KR", "current_rating": {"decay": 0, "dev": 0.0784174911725339, "dev_vp": 0.108138627384446, "dev_vt": 0.089291383193875, "dev_vz": 0.103328629641973, "id": 5192603, "rating": 1.15882471529316, "rating_vp": -0.161969644470562, "rating_vt": 0.0441275294986875, "rating_vz": 0.117842114971875, "resource_uri": "/api/v1/rating/5192603/", "tot_vp": 0.9968550708225978, "tot_vt": 1.2029522447918475, "tot_vz": 1.2766668302650348}, "current_teams": [{"end": null, "id": 84, "playing": true, "resource_uri": "", "start": null, "team": {"id": 9, "name": "CJ Entus", "resource_uri": "/api/v1/team/9/", "shortname": "CJ Entus"}}], "dom_end": "/api/v1/period/91/", "dom_start": "/api/v1/period/66/", "dom_val": 1.49559860065395, "id": 233, "lp_name": "HerO(jOin)", "mcnum": 1, "name": "김준호", "past_teams": [], "race": "P", "resource_uri": "/api/v1/player/233/", "romanized_name": "Kim Joon Ho", "sc2e_id": 515, "tag": "herO", "tlpd_db": 3, "tlpd_id": 682}, {"aliases": ["sola", "annmma", "BBatta"], "birthday": "1996-05-09", "country": "KR", "current_rating": {"decay": 0, "dev": 0.0694860863105542, "dev_vp": 0.0745286029832298, "dev_vt": 0.0769612968129098, "dev_vz": 0.0751867136478838, "id": 5194035, "rating": 1.15328685047813, "rating_vp": 0.0940205906711318, "rating_vt": -0.0626345082577988, "rating_vz": -0.031386082413333, "resource_uri": "/api/v1/rating/5194035/", "tot_vp": 1.2473074411492617, "tot_vt": 1.0906523422203311, "tot_vz": 1.121900768064797}, "current_teams": [{"end": null, "id": 1107, "playing": true, "resource_uri": "", "start": "2012-04-12", "team": {"id": 11, "name": "Samsung Galaxy Khan", "resource_uri": "/api/v1/team/11/", "shortname": "Samsung"}}], "dom_end": "/api/v1/period/87/", "dom_start": "/api/v1/period/82/", "dom_val": 0.249081941925468, "id": 1793, "lp_name": "Solar", "mcnum": 2, "name": "강민수", "past_teams": [], "race": "Z", "resource_uri": "/api/v1/player/1793/", "romanized_name": "Kang Min Soo", "sc2e_id": null, "tag": "Solar", "tlpd_db": 1, "tlpd_id": 4797}, {"aliases": ["Bogus"], "birthday": "1993-07-25", "country": "KR", "current_rating": {"decay": 0, "dev": 0.0860501011230716, "dev_vp": 0.118402812651897, "dev_vt": 0.135693247794722, "dev_vz": 0.114801759598281, "id": 5192420, "rating": 1.15281553226723, "rating_vp": -0.0137527460110623, "rating_vt": -0.0686795842978374, "rating_vz": 0.0824323303088997, "resource_uri": "/api/v1/rating/5192420/", "tot_vp": 1.1390627862561677, "tot_vt": 1.0841359479693926, "tot_vz": 1.2352478625761296}, "current_teams": [{"end": null, "id": 3242, "playing": true, "resource_uri": "", "start": "2014-09-25", "team": {"id": 12, "name": "SK Telecom T1", "resource_uri": "/api/v1/team/12/", "shortname": "SKT T1"}}], "dom_end": "/api/v1/period/91/", "dom_start": "/api/v1/period/50/", "dom_val": 3.22960334368998, "id": 48, "lp_name": "Bogus", "mcnum": 1, "name": "이신형", "past_teams": [{"end": "2013-09-01", "id": 126, "playing": true, "resource_uri": "", "start": null, "team": {"id": 13, "name": "SouL", "resource_uri": "/api/v1/team/13/", "shortname": "SouL"}}, {"end": "2014-09-03", "id": 1866, "playing": true, "resource_uri": "", "start": "2013-09-01", "team": {"id": 26, "name": "Team Acer", "resource_uri": "/api/v1/team/26/", "shortname": "Acer"}}], "race": "T", "resource_uri": "/api/v1/player/48/", "romanized_name": "Lee Shin Hyung", "sc2e_id": 556, "tag": "INnoVation", "tlpd_db": 3, "tlpd_id": 663}, {"aliases": [], "birthday": "1994-08-24", "country": "KR", "current_rating": {"decay": 0, "dev": 0.108414101801015, "dev_vp": 0.0980472145112953, "dev_vt": 0.0862307375243004, "dev_vz": 0.0943607406320729, "id": 5192377, "rating": 1.13961476792593, "rating_vp": -0.0390281041247079, "rating_vt": 0.0124427976591655, "rating_vz": 0.0265853064655424, "resource_uri": "/api/v1/rating/5192377/", "tot_vp": 1.1005866638012223, "tot_vt": 1.1520575655850955, "tot_vz": 1.1662000743914724}, "current_teams": [{"end": null, "id": 3326, "playing": true, "resource_uri": "", "start": "2014-10-16", "team": {"id": 105, "name": "Yoe Flash Wolves", "resource_uri": "/api/v1/team/105/", "shortname": "Yoe"}}], "dom_end": "/api/v1/period/85/", "dom_start": "/api/v1/period/72/", "dom_val": 1.21433440698268, "id": 5, "lp_name": "PartinG", "mcnum": 1, "name": "원이삭", "past_teams": [{"end": "2014-09-30", "id": 1273, "playing": true, "resource_uri": "", "start": "2013-01-14", "team": {"id": 12, "name": "SK Telecom T1", "resource_uri": "/api/v1/team/12/", "shortname": "SKT T1"}}, {"end": null, "id": 607, "playing": true, "resource_uri": "", "start": "2011-07-18", "team": {"id": 4, "name": "FXOpen e-Sports Korea", "resource_uri": "/api/v1/team/4/", "shortname": "fOu"}}, {"end": "2013-01-03", "id": 10, "playing": true, "resource_uri": "", "start": null, "team": {"id": 1, "name": "StarTale", "resource_uri": "/api/v1/team/1/", "shortname": "StarTale"}}, {"end": "2011-07-18", "id": 608, "playing": true, "resource_uri": "", "start": null, "team": {"id": 88, "name": "fOu", "resource_uri": "/api/v1/team/88/", "shortname": "fOu"}}], "race": "P", "resource_uri": "/api/v1/player/5/", "romanized_name": "Won Lee Sak", "sc2e_id": 411, "tag": "PartinG", "tlpd_db": 3, "tlpd_id": 2322}, {"aliases": ["Wooki", "P7GAB"], "birthday": "1992-07-11", "country": "KR", "current_rating": {"decay": 0, "dev": 0.0856945985808629, "dev_vp": 0.0935123416757721, "dev_vt": 0.127821718819944, "dev_vz": 0.0881023769555824, "id": 5193929, "rating": 1.11920366800942, "rating_vp": 0.143563793471086, "rating_vt": -0.15514832469148, "rating_vz": 0.0115845312203937, "resource_uri": "/api/v1/rating/5193929/", "tot_vp": 1.262767461480506, "tot_vt": 0.96405534331794, "tot_vz": 1.1307881992298137}, "current_teams": [{"end": null, "id": 94, "playing": true, "resource_uri": "", "start": null, "team": {"id": 10, "name": "KT Rolster", "resource_uri": "/api/v1/team/10/", "shortname": "KT"}}], "dom_end": "/api/v1/period/87/", "dom_start": "/api/v1/period/84/", "dom_val": 0.078831567577476, "id": 1658, "lp_name": "Wooki", "mcnum": 2, "name": "주성욱", "past_teams": [], "race": "P", "resource_uri": "/api/v1/player/1658/", "romanized_name": "Joo Sung Wook", "sc2e_id": null, "tag": "Zest", "tlpd_db": 1, "tlpd_id": 977}, {"aliases": [], "birthday": "1997-01-11", "country": "KR", "current_rating": {"decay": 1, "dev": 0.104364583853004, "dev_vp": 0.108218733462195, "dev_vt": 0.10908044297331, "dev_vz": 0.114076328170767, "id": 5192375, "rating": 1.1091211667985, "rating_vp": -0.0508691063124179, "rating_vt": 0.0105978813855808, "rating_vz": 0.0402712249268372, "resource_uri": "/api/v1/rating/5192375/", "tot_vp": 1.0582520604860821, "tot_vt": 1.1197190481840806, "tot_vz": 1.149392391725337}, "current_teams": [{"end": null, "id": 9, "playing": true, "resource_uri": "", "start": "2012-07-13", "team": {"id": 1, "name": "StarTale", "resource_uri": "/api/v1/team/1/", "shortname": "StarTale"}}], "dom_end": "/api/v1/period/81/", "dom_start": "/api/v1/period/58/", "dom_val": 1.25317852829735, "id": 3, "lp_name": "Life", "mcnum": 1, "name": "이승현", "past_teams": [{"end": "2012-07-13", "id": 425, "playing": true, "resource_uri": "", "start": null, "team": {"id": 65, "name": "ZeNEX", "resource_uri": "/api/v1/team/65/", "shortname": "ZeNEX"}}], "race": "Z", "resource_uri": "/api/v1/player/3/", "romanized_name": "Lee Seung Hyun", "sc2e_id": 407, "tag": "Life", "tlpd_db": 3, "tlpd_id": 2747}, {"aliases": [], "birthday": "1992-07-05", "country": "KR", "current_rating": {"decay": 0, "dev": 0.0972071169482252, "dev_vp": 0.0849568359091888, "dev_vt": 0.12054854754164, "dev_vz": 0.0996091357329624, "id": 5192427, "rating": 1.0831680769232, "rating_vp": -0.0125296007264165, "rating_vt": -0.0183154128855993, "rating_vz": 0.0308450136120158, "resource_uri": "/api/v1/rating/5192427/", "tot_vp": 1.0706384761967835, "tot_vt": 1.0648526640376006, "tot_vz": 1.1140130905352157}, "current_teams": [{"end": null, "id": 95, "playing": true, "resource_uri": "", "start": null, "team": {"id": 10, "name": "KT Rolster", "resource_uri": "/api/v1/team/10/", "shortname": "KT"}}], "dom_end": "/api/v1/period/54/", "dom_start": "/api/v1/period/52/", "dom_val": 0.03093659510428, "id": 55, "lp_name": "Flash", "mcnum": 1, "name": "이영호", "past_teams": [], "race": "T", "resource_uri": "/api/v1/player/55/", "romanized_name": "Lee Young Ho", "sc2e_id": 537, "tag": "Flash", "tlpd_db": 3, "tlpd_id": 424}, {"aliases": ["smilekr29", " smilekr"], "birthday": "1988-10-29", "country": "KR", "current_rating": {"decay": 0, "dev": 0.0802536241350598, "dev_vp": 0.0803365926051234, "dev_vt": 0.0793090872501501, "dev_vz": 0.0964235770519762, "id": 5192400, "rating": 1.07309561545332, "rating_vp": -0.0166132724290588, "rating_vt": 0.0398246042041274, "rating_vz": -0.0232113317750686, "resource_uri": "/api/v1/rating/5192400/", "tot_vp": 1.0564823430242611, "tot_vt": 1.1129202196574475, "tot_vz": 1.0498842836782514}, "current_teams": [{"end": null, "id": 208, "playing": true, "resource_uri": "", "start": "2012-11-21", "team": {"id": 26, "name": "Team Acer", "resource_uri": "/api/v1/team/26/", "shortname": "Acer"}}], "dom_end": "/api/v1/period/62/", "dom_start": "/api/v1/period/38/", "dom_val": 1.182130289438, "id": 28, "lp_name": "MMA", "mcnum": 1, "name": "문성원", "past_teams": [{"end": "2012-11-03", "id": 385, "playing": true, "resource_uri": "", "start": null, "team": {"id": 47, "name": "SlayerS", "resource_uri": "/api/v1/team/47/", "shortname": "SlayerS"}}], "race": "T", "resource_uri": "/api/v1/player/28/", "romanized_name": "Moon Sung Won", "sc2e_id": 184, "tag": "MMA", "tlpd_db": 3, "tlpd_id": 665}]}